module gitlab.com/evolves-fr/nginx-fpm-exporter

go 1.17

require (
	github.com/prometheus/client_golang v1.11.0
	github.com/urfave/cli/v2 v2.3.0
)

require (
	github.com/beorn7/perks v1.0.1 // indirect
	github.com/cespare/xxhash/v2 v2.1.1 // indirect
	github.com/cpuguy83/go-md2man/v2 v2.0.0-20190314233015-f79a8a8ca69d // indirect
	github.com/golang/protobuf v1.4.3 // indirect
	github.com/matttproud/golang_protobuf_extensions v1.0.1 // indirect
	github.com/prometheus/client_model v0.2.0 // indirect
	github.com/prometheus/common v0.26.0 // indirect
	github.com/prometheus/procfs v0.6.0 // indirect
	github.com/russross/blackfriday/v2 v2.0.1 // indirect
	github.com/shurcooL/sanitized_anchor_name v1.0.0 // indirect
	golang.org/x/sys v0.0.0-20210603081109-ebe580a85c40 // indirect
	google.golang.org/protobuf v1.26.0-rc.1 // indirect
)
